{
  "name": "liger1978-netdata",
  "version": "0.2.0",
  "author": "Richard Grainger",
  "summary": "Installs and configures netdata.",
  "license": "Apache-2.0",
  "source": "https://gitlab.com/harbottle/puppet-netdata",
  "project_page": "https://gitlab.com/harbottle/puppet-netdata",
  "issues_url": "https://gitlab.com/harbottle/puppet-netdata/issues",
  "dependencies": [
      {"name":"puppetlabs/stdlib","version_requirement":">= 4.12.0 <5.0.0"}
  ],
  "operatingsystem_support": [
    {
      "operatingsystem": "RedHat",
      "operatingsystemrelease": [
        "7"
      ]
    },
    {
      "operatingsystem": "CentOS",
      "operatingsystemrelease": [
        "7"
      ]
    },
    {
      "operatingsystem": "OracleLinux",
      "operatingsystemrelease": [
        "7"
      ]
    },
    {
      "operatingsystem": "Scientific",
      "operatingsystemrelease": [
        "7"
      ]
    },
    {
      "operatingsystem": "Ubuntu",
      "operatingsystemrelease": [
        "18.04"
      ]
    }
  ],
  "requirements": [
    {
      "name": "puppet",
      "version_requirement": ">= 3.0.0 < 6.0.0"
    }
  ],
  "pdk-version": "1.5.0",
  "template-url": "https://github.com/puppetlabs/pdk-templates",
  "template-ref": "1.5.0-0-gd1b3eca"
}
